{
    "five_years_earning_growth_rate": {
        "calc_eq": "x > 10",
        "weight": 1
    },
    "roi": {
        "calc_eq": "x > 8",
        "weight": 1
    },
    "debt_to_equity": {
        "calc_eq": "x < 100",
        "weight": 1
    },
    "quick_ratio": {
        "calc_eq": "x > 1",
        "weight": 1
    },
    "payout_ratio": {
        "calc_eq": "x < 35",
        "weight": 1
    },
    "current_ratio": {
        "calc_eq": "1.5 < x < 2.5",
        "weight": 1
    },
    "roa_annual": {
        "calc_eq": "x > 6",
        "weight": 1
    },
    "roe_ttm": {
        "calc_eq": "x > 8",
        "weight": 1
    },
    "roa_consistency": {
        "calc_eq": "x > 1",
        "weight": 1
    },
    "roe_consistency": {
        "calc_eq": "x > 1",
        "weight": 1
    },
    "free_cash_flow_to_revenue": {
        "calc_eq": "x > 5",
        "weight": 1
    },
    "book_value_growth": {
        "calc_eq": "x > 7",
        "weight": 1
    },
    "interest_coverage_ratio": {
        "calc_eq": "x > 5",
        "weight": 1
    },
    "inventory_turnover_ratio": {
        "calc_eq": "x > 4",
        "weight": 1
    },
    "net_income_trendline": {
        "calc_eq": "x > 0.1",
        "weight": 1
    },
    "net_margin_growth_5y": {
        "calc_eq": "x > 0.1",
        "weight": 1
    }
}